{
  "titles": [
    [
      "Why this app?"
    ],
    [
      "Permissions"
    ],
    [
      "DIY"
    ],
    [
      "Remove Ads"
    ],
    [
      "Donate"
    ],
    [
      "Community"
    ],
    [
      "Emojis & Stickers"
    ],
    [
      "Personal Information"
    ],
    [
      "GameZone"
    ],
    [
      "Wallpapers"
    ]
  
  ],
  "contents": [
    [
      "Picture Keyboard is an android application that makes fun typing on your smartphone. Here you can enjoy preparing your keyboard with unlimited themes and adding your favorite photo as background."
    ],
    [
      "You need to grant various permissions to apply your own made keyboard as it allows us to help you make your dream keyboard. Since, the application provides numerous themes and live effects for your keyboard, it requires storage permissions to keep your customize data saved. To keep your sound saved for keyboard,it also requires vibration permissions to save sounds you have selected for you."
    ],
    [
      "This application also provides live background. You can choose the font style, keys, sounds and keep saved from thousands of options available in seconds. You can save hundreds of your themes in the customization theme section and change them accordingly. You can change font colour,menu colour and background colour anytime while customizing your themes. Effects are pop ups seen on the keyboard whenever you type something on keyboard. This section allows us to use your photos to be used as keyboard background."
    ],
    [
      "This app does contain ads. You can remove ads by purchasing the pro version to continue to enjoy making your countless own keyboard themes.We are sorry for this, but to continue work on this free app we need revenue from Ads. If you don't want to see the Ads you can purchase the Pro version."
    ],
    [
      "If you like our app, donate to us in donate section of application to motivate our developers to serve you the best."
    ],
    [
      "We also have an online community in the application where users can upload their favorite keyboard themes. You need to log in to upload personalized thems on the community Page. Once you upload your themes on community Page, our users will be able to see your custom keyboard which they can download and share with friends. Also people can hit like button which ultimately brings your keyboard in the trending list with most numbers of users."
    ],
    [
      "If you download art emojis, you will find an art icon on the top of the keyboard. By clicking, the list of downloaded arts will appear and are ready to share with loved ones.\nAlso, Stickers are waiting for you. Once Downloaded,you will see emoji icon on the topbar of the keyboard , in the bottom bar you will see stickers icon where all your stickers pack are been stored. Find your favorite characters chatting for you to make your chats more exciting and fun."
    ],
    [
      "We do not collect personal information like credit card details, date of birth, or mobile phone number. "
    ],
    [
      "We already have a GameZone set up for you to enjoy free games in your leisure time.The best score will be saved everytime you break your personal records. The different list will be generated of games played recently at the top of page."
    ],
    [
      "We have segregated wallpapers in the application you can download, share and set up as your home and lock screen with a single click."
    ]
   
  ],
  "questions": [
    [
     "What is picture keyboard is all about?"
    ],
    [
      "Why i need to grant Permissions?",
      "Why should i grant storage permissions?",
      "Why should i grant vibration permissions?"
    ],
    [
      "Can i make keyboard themes with my photo?",
      "Can i change font colour?",
      "can i change menu colour?",
      "What are Effects?"
    ],
    [
      "Does this app has an in app purchases?",
      "How can i remove ads?",
      "Why there are so many ads?"
    ],
    [
      "Where can i Donate?"
    ],
    [
      "Is it mandatory to log in to upload on community Page?",
      "Does other users can like my themes?",
      "Can i download themes from trending list?"
    ],
    [
      "Where can i find downloaded art emojis?",
      "Where are my stickers pack?"
    ],
    [
      "Do they collect personal information?"
    ],
    [
      "Why is Gamezone set up?",
      "Will my best score will be saved?",
      "Where can i see recently played games?"
    ],
    [
      "Are there wallpapers available?",
      "Can i share wallpapers?",
      "can i set wallpaper as my lock screen?",
      "can i set wallpaper as my home screen?"
    ]
   
  ]
}